{
   "BillingAccount":{
      "AccountType":"Trial",
      "AccountBalance":999.99,
      "TransactionCost":999.99,
      "ExtraInformation":{
         
      }
   },
   "TechnicalSupport":{
      "ServerId":"UK1",
      "RequestId":"2c718bdf36094fcba8a4a118c2fb3231",
      "QueryDurationMs":8,
      "SupportDate":"18/07/2021",
      "SupportTime":"22:30:33",
      "SupportCode":"2c718bdf"
   },
   "Request":{
      "RequestGuid":"2c718bdf-3609-4fcb-a8a4-a118c2fb3231",
      "PackageId":"4f758582-563a-4b46-b772-a2ee7d6165fa",
      "PackageVersion":2,
      "ResponseVersion":2,
      "DataKeys":{
         "Vrm":"da63oae"
      }
   },
   "Response":{
      "StatusCode":"Success",
      "StatusMessage":"Success",
      "StatusInformation":{
         "Lookup":{
            "StatusCode":"Success",
            "StatusMessage":"Success",
            "AdviceTextList":[
               
            ]
         }
      },
      "DataItems":{
         "UkvdEnhancedData":{
            "ElectricVehicleData":null,
            "Identification":{
               "IsElectricVehicle":false
            }
         },
         "TechnicalDetails":{
            "Dimensions":{
               "UnladenWeight":null,
               "RigidArtic":"RIGID",
               "BodyShape":"NA",
               "PayloadVolume":null,
               "PayloadWeight":null,
               "Height":1415.0,
               "NumberOfDoors":5,
               "NumberOfSeats":5,
               "KerbWeight":1750.0,
               "GrossTrainWeight":null,
               "FuelTankCapacity":61.00,
               "LoadLength":null,
               "DataVersionNumber":null,
               "WheelBase":2811.0,
               "CarLength":4719.0,
               "Width":2040.0,
               "NumberOfAxles":2,
               "GrossVehicleWeight":2320.0,
               "GrossCombinedWeight":null
            },
            "Safety":{
               "EuroNcap":{
                  "Child":null,
                  "Adult":null,
                  "Pedestrian":null
               }
            },
            "General":{
               "Engine":{
                  "FuelCatalyst":"C",
                  "Stroke":89.0,
                  "PrimaryFuelFlag":"Y",
                  "ValvesPerCylinder":5,
                  "Aspiration":"Turbocharged",
                  "FuelSystem":"P DI Turbo Cat Euro 5",
                  "NumberOfCylinders":6,
                  "CylinderArrangement":"V",
                  "ValveGear":"DOHC",
                  "Location":"FRONT",
                  "Description":"3.0 TFSI (EU5) START/STOP-F",
                  "Bore":84.0,
                  "Make":"AUDI",
                  "FuelDelivery":"Direct Injection"
               },
               "PowerDelivery":"NORMAL",
               "TypeApprovalCategory":"M1",
               "ElectricVehicleBattery":{
                  "Capacity":null,
                  "ChargePort":null,
                  "ChargeTime":null,
                  "Type":null
               },
               "SeriesDescription":"B8",
               "DriverPosition":"R",
               "DrivingAxle":"4X4",
               "DataVersionNumber":null,
               "EuroStatus":"5",
               "IsLimitedEdition":false
            },
            "Performance":{
               "Torque":{
                  "FtLb":325.0,
                  "Nm":440.0,
                  "Rpm":5300.0
               },
               "NoiseLevel":null,
               "DataVersionNumber":null,
               "Power":{
                  "Bhp":328.00,
                  "Rpm":6500.0,
                  "Kw":245.0
               },
               "MaxSpeed":{
                  "Kph":249.448320,
                  "Mph":155.0
               },
               "Co2":197.0,
               "Particles":null,
               "Acceleration":{
                  "Mph":5.1,
                  "Kph":null,
                  "ZeroTo60Mph":5.1,
                  "ZeroTo100Kph":null
               }
            },
            "Consumption":{
               "ExtraUrban":{
                  "Lkm":6.80,
                  "Mpg":41.50
               },
               "UrbanCold":{
                  "Lkm":11.20,
                  "Mpg":25.20
               },
               "Combined":{
                  "Lkm":8.40,
                  "Mpg":33.60
               }
            }
         },
         "ClassificationDetails":{
            "Smmt":{
               "Make":"AUDI",
               "Mvris":{
                  "ModelCode":"EOG",
                  "MakeCode":"M3"
               },
               "Trim":"S4 AVANT QUATTRO",
               "Range":"A4"
            },
            "Dvla":{
               "Model":"S4 TFSI QUATTRO AUTO",
               "Make":"AUDI"
            },
            "Ukvd":{
               "IsElectricVehicle":false
            }
         },
         "VehicleStatus":{
            "MotVed":{
               "VedRate":{
                  "FirstYear":{
                     "SixMonth":null,
                     "TwelveMonth":500.0
                  },
                  "PremiumVehicle":{
                     "YearTwoToSix":{
                        "TwelveMonth":null,
                        "SixMonth":null
                     }
                  },
                  "Standard":{
                     "SixMonth":173.25,
                     "TwelveMonth":315.0
                  }
               },
               "VedCo2Emissions":197.0,
               "MotDue":null,
               "VedBand":"J",
               "VedCo2Band":"J",
               "TaxDue":null,
               "Message":null,
               "VehicleStatus":null
            }
         },
         "VehicleHistory":{
            "V5CCertificateCount":1,
            "PlateChangeCount":2,
            "NumberOfPreviousKeepers":5,
            "V5CCertificateList":[
               {
                  "CertificateDate":"2013-12-03T00:00:00"
               }
            ],
            "KeeperChangesCount":5,
            "VicCount":0,
            "ColourChangeCount":null,
            "ColourChangeList":null,
            "KeeperChangesList":[
               {
                  "DateOfTransaction":"2020-10-11T00:00:00",
                  "NumberOfPreviousKeepers":5,
                  "DateOfLastKeeperChange":"2020-10-04T00:00:00"
               },
               {
                  "DateOfTransaction":"2019-11-24T00:00:00",
                  "NumberOfPreviousKeepers":4,
                  "DateOfLastKeeperChange":"2019-11-15T00:00:00"
               },
               {
                  "DateOfTransaction":"2018-09-09T00:00:00",
                  "NumberOfPreviousKeepers":3,
                  "DateOfLastKeeperChange":"2018-08-31T00:00:00"
               },
               {
                  "DateOfTransaction":"2016-03-06T00:00:00",
                  "NumberOfPreviousKeepers":2,
                  "DateOfLastKeeperChange":"2015-09-14T00:00:00"
               },
               {
                  "DateOfTransaction":"2014-09-14T00:00:00",
                  "NumberOfPreviousKeepers":1,
                  "DateOfLastKeeperChange":"2014-08-14T00:00:00"
               }
            ],
            "PlateChangeList":[
               {
                  "CurrentVRM":"DA63OAE",
                  "TransferType":"DataMove",
                  "DateOfReceipt":"2019-09-02T00:00:00",
                  "PreviousVRM":"JU51ORD",
                  "DateOfTransaction":"2019-09-02T00:00:00"
               },
               {
                  "CurrentVRM":"JU51ORD",
                  "TransferType":"DataMove",
                  "DateOfReceipt":"2018-09-09T00:00:00",
                  "PreviousVRM":"DA63OAE",
                  "DateOfTransaction":"2018-09-09T00:00:00"
               }
            ],
            "VicList":null
         },
         "VehicleRegistration":{
            "DateOfLastUpdate":"2013-12-19T00:00:00",
            "Colour":"WHITE",
            "VehicleClass":"Car",
            "CertificateOfDestructionIssued":null,
            "EngineNumber":"CGWC084933",
            "EngineCapacity":"2995",
            "TransmissionCode":"A",
            "Exported":false,
            "YearOfManufacture":"2013",
            "WheelPlan":null,
            "DateExported":null,
            "Scrapped":false,
            "Transmission":"AUTO 7 GEARS",
            "DateFirstRegisteredUk":"2013-12-03T00:00:00",
            "Model":"S4 TFSI QUATTRO AUTO",
            "GearCount":7,
            "ImportNonEu":false,
            "PreviousVrmGb":null,
            "GrossWeight":0.0,
            "DoorPlanLiteral":"ESTATE",
            "MvrisModelCode":"EOG",
            "Vin":"For access to the full VIN / Chassis number please visit here: https://panel.ukvehicledata.co.uk/EnableFullVin",
            "Vrm":"DA63OAE",
            "DateFirstRegistered":"2013-12-03T00:00:00",
            "DateScrapped":null,
            "DoorPlan":"06",
            "YearMonthFirstRegistered":"2013-12",
            "VinLast5":"75424",
            "VehicleUsedBeforeFirstRegistration":false,
            "MaxPermissibleMass":2320.0,
            "Make":"AUDI",
            "MakeModel":"AUDI S4 TFSI QUATTRO AUTO",
            "TransmissionType":"Auto Clutch Manual",
            "SeatingCapacity":5,
            "FuelType":"PETROL",
            "Co2Emissions":197.0,
            "Imported":false,
            "MvrisMakeCode":"M3",
            "PreviousVrmNi":null,
            "VinConfirmationFlag":null
         },
         "SmmtDetails":{
            "Range":"S4 Avant",
            "FuelType":"Petrol",
            "EngineCapacity":"2995",
            "MarketSectorCode":"AA",
            "CountryOfOrigin":"GERMANY",
            "ModelCode":"722",
            "ModelVariant":"S4 AVANT QUATTRO",
            "DataVersionNumber":null,
            "NumberOfGears":7,
            "NominalEngineCapacity":3.0,
            "MarqueCode":"MJ",
            "Transmission":"AUTOMATIC",
            "BodyStyle":"ESTATE",
            "VisibilityDate":"31/01/2012",
            "SysSetupDate":"31/01/2012",
            "Marque":"Audi",
            "CabType":"NA",
            "TerminateDate":null,
            "Series":"B8",
            "NumberOfDoors":5,
            "DriveType":"4X4"
         }
      }
   }
}